…
Show the dataframe

``` r
data_background
```

    ## # A tibble: 8,754 x 8
    ##    date                 year month  week   day stickstoffmonox…
    ##    <dttm>              <dbl> <dbl> <dbl> <int>            <dbl>
    ##  1 2019-03-22 00:00:00  2019     3    12    22                6
    ##  2 2019-03-22 01:00:00  2019     3    12    22               24
    ##  3 2019-03-22 02:00:00  2019     3    12    22               19
    ##  4 2019-03-22 03:00:00  2019     3    12    22                9
    ##  5 2019-03-22 04:00:00  2019     3    12    22                3
    ##  6 2019-03-22 05:00:00  2019     3    12    22                3
    ##  7 2019-03-22 06:00:00  2019     3    12    22                5
    ##  8 2019-03-22 07:00:00  2019     3    12    22               22
    ##  9 2019-03-22 08:00:00  2019     3    12    22               19
    ## 10 2019-03-22 09:00:00  2019     3    12    22               32
    ## # … with 8,744 more rows, and 2 more variables: stickstoffdioxid <dbl>,
    ## #   stickoxide <dbl>
…
